{
	"content": [
		{
			"id": 766,
			"version": 62,
			"errandNumber": "MEX-2024-000152",
			"municipalityId": "2281",
			"namespace": "SBK_MEX",
			"caseType": "MEX_SELL_LAND_TO_THE_MUNICIPALITY",
			"priority": "MEDIUM",
			"caseTitleAddition": "Sälja mark till kommunen",
			"phase": "Beslut",
			"status": {
				"statusType": "Under beslut",
				"description": "Ärendet beslutas",
				"created": "2024-04-09T10:41:20.207041+02:00"
			},
			"statuses": [
				{
					"statusType": "Under beslut",
					"description": "Ärendet beslutas",
					"created": "2024-04-09T10:41:20.207041+02:00"
				}
			],
			"processId": "d08f658e-f64c-11ee-a758-0242c0a82063",
			"stakeholders": [
				{
					"id": 1715,
					"version": 5,
					"municipalityId": "2281",
					"namespace": "SBK_MEX",
					"type": "PERSON",
					"firstName": "John",
					"lastName": "Doe",
					"adAccount": "abc123abc",
					"roles": [
						"ADMINISTRATOR"
					],
					"addresses": [],
					"contactInformation": [],
					"extraParameters": {},
					"created": "2024-04-09T10:40:41.261775+02:00",
					"updated": "2024-04-09T10:41:14.81849+02:00"
				},
				{
					"id": 4504,
					"version": 1,
					"municipalityId": "2281",
					"namespace": "SBK_MEX",
					"type": "PERSON",
					"firstName": "John",
					"lastName": "Doe",
					"adAccount": "abc123abc",
					"roles": [
						"ADMINISTRATOR"
					],
					"addresses": [],
					"contactInformation": [],
					"extraParameters": {},
					"created": "2025-02-27T09:55:48.652748+01:00",
					"updated": "2025-02-27T09:55:48.70003+01:00"
				}
			],
			"facilities": [
				{
					"id": 594,
					"version": 0,
					"municipalityId": "2281",
					"namespace": "SBK_MEX",
					"address": {
						"propertyDesignation": "BALDER 1"
					},
					"mainFacility": false,
					"created": "2025-04-16T15:05:05.682121+02:00",
					"updated": "2025-04-16T15:05:05.682136+02:00",
					"extraParameters": {}
				}
			],
			"notifications": [],
			"decisions": [],
			"notes": [],
			"labels": [],
			"relatesTo": [],
			"createdByClient": "abc123abc",
			"updatedByClient": "abc123abc",
			"createdBy": "abc123abc",
			"updatedBy": "abc123abc",
			"suspension": {},
			"extraParameters": [
				{
					"key": "process.phaseAction",
					"values": [
						"UNKNOWN"
					]
				},
				{
					"key": "process.displayPhase",
					"values": [
						"Beslut"
					]
				},
				{
					"key": "contractId",
					"values": [
						"2025-10003"
					]
				},
				{
					"key": "process.phaseStatus",
					"values": [
						"WAITING"
					]
				},
				{
					"key": "caseMeaning",
					"values": [
						"Ärendemening test"
					]
				},
				{
					"key": "otherInformation",
					"values": [
						"s"
					]
				},
				{
					"key": "reason",
					"values": [
						""
					]
				}
			],
			"created": "2024-04-09T10:40:27.136005+02:00",
			"updated": "2025-04-30T08:06:55.824613+02:00"
		},
		{
			"id": 774,
			"version": 10,
			"errandNumber": "MEX-2024-000160",
			"municipalityId": "2281",
			"namespace": "SBK_MEX",
			"externalCaseId": "4065",
			"caseType": "MEX_SELL_LAND_TO_THE_MUNICIPALITY",
			"channel": "ESERVICE",
			"priority": "MEDIUM",
			"phase": "Aktualisering",
			"status": {
				"statusType": "Ärende inkommit",
				"description": "Ärende inkommit",
				"created": "2024-04-10T10:13:32.609678+02:00"
			},
			"statuses": [
				{
					"statusType": "Ärende inkommit",
					"description": "Ärende inkommit",
					"created": "2024-04-10T10:13:32.609678+02:00"
				}
			],
			"processId": "330a779e-f712-11ee-a758-0242c0a82063",
			"stakeholders": [
				{
					"id": 1734,
					"version": 0,
					"municipalityId": "2281",
					"namespace": "SBK_MEX",
					"type": "ORGANIZATION",
					"organizationName": "hoppålek",
					"organizationNumber": "559049-5577",
					"roles": [
						"APPLICANT"
					],
					"addresses": [
						{
							"addressCategory": "POSTAL_ADDRESS"
						}
					],
					"contactInformation": [],
					"extraParameters": {},
					"created": "2024-04-10T10:13:23.136184+02:00",
					"updated": "2024-04-10T10:13:23.13619+02:00"
				}
			],
			"facilities": [
				{
					"id": 19,
					"version": 0,
					"municipalityId": "2281",
					"namespace": "SBK_MEX",
					"address": {
						"propertyDesignation": "BALDER 2"
					},
					"mainFacility": true,
					"created": "2024-04-10T10:13:23.134773+02:00",
					"updated": "2024-04-10T10:13:23.134781+02:00",
					"extraParameters": {}
				},
				{
					"id": 18,
					"version": 0,
					"municipalityId": "2281",
					"namespace": "SBK_MEX",
					"address": {
						"propertyDesignation": "BALDER 3"
					},
					"mainFacility": true,
					"created": "2024-04-10T10:13:23.134773+02:00",
					"updated": "2024-04-10T10:13:23.134781+02:00",
					"extraParameters": {}
				}
			],
			"notifications": [],
			"decisions": [],
			"notes": [],
			"labels": [],
			"relatesTo": [],
			"createdByClient": "WSO2_MS_caseManagement",
			"updatedByClient": "WSO2_Camunda",
			"createdBy": "UNKNOWN",
			"updatedBy": "UNKNOWN",
			"suspension": {},
			"extraParameters": [
				{
					"key": "applicantType",
					"values": [
						"Representant för förening"
					]
				},
				{
					"key": "process.displayPhase",
					"values": [
						"Registrerad"
					]
				},
				{
					"key": "process.phaseAction",
					"values": [
						"UNKNOWN"
					]
				},
				{
					"key": "process.phaseStatus",
					"values": [
						"WAITING"
					]
				},
				{
					"key": "reason",
					"values": [
						"därför"
					]
				},
				{
					"key": "serviceName",
					"values": [
						"Kommunal mark - använda, köpa eller sälja mark till kommunen - TEST"
					]
				}
			],
			"created": "2024-04-10T10:13:23.132817+02:00",
			"updated": "2024-04-10T10:13:32.714588+02:00"
		}
	],
	"pageable": {
		"pageNumber": 0,
		"pageSize": 2,
		"sort": [],
		"offset": 0,
		"unpaged": false,
		"paged": true
	},
	"totalPages": 90,
	"totalElements": 179,
	"last": false,
	"size": 2,
	"number": 0,
	"sort": [],
	"first": true,
	"numberOfElements": 2,
	"empty": false
}
